Chapter 2 Summary & Overview Functions | Joe’s R Guide
…
2.3 print, glimpse & str

Alternative ways to see the contents of the data in more detail than summary() provides.

print(mpg)

## # A tibble: 234 x 11
##    manufacturer model    displ  year   cyl trans   drv     cty   hwy fl    class
##    <chr>        <chr>    <dbl> <int> <int> <chr>   <chr> <int> <int> <chr> <chr>
##  1 audi         a4         1.8  1999     4 auto(l… f        18    29 p     comp…
##  2 audi         a4         1.8  1999     4 manual… f        21    29 p     comp…
##  3 audi         a4         2    2008     4 manual… f        20    31 p     comp…
##  4 audi         a4         2    2008     4 auto(a… f        21    30 p     comp…
##  5 audi         a4         2.8  1999     6 auto(l… f        16    26 p     comp…
##  6 audi         a4         2.8  1999     6 manual… f        18    26 p     comp…
##  7 audi         a4         3.1  2008     6 auto(a… f        18    27 p     comp…
##  8 audi         a4 quat…   1.8  1999     4 manual… 4        18    26 p     comp…
##  9 audi         a4 quat…   1.8  1999     4 auto(l… 4        16    25 p     comp…
## 10 audi         a4 quat…   2    2008     4 manual… 4        20    28 p     comp…
## # … with 224 more rows
…
## [1] 122203

ncol(nyc_license)

## [1] 14

2.5 count()

Useful count of unique combinations.
Easiest to understand with an example:

count(mpg,manufacturer, class)

## # A tibble: 32 x 3
##    manufacturer class          n
##    <chr>        <chr>      <int>
##  1 audi         compact       15
##  2 audi         midsize        3
##  3 chevrolet    2seater        5
##  4 chevrolet    midsize        5
##  5 chevrolet    suv            9
##  6 dodge        minivan       11
##  7 dodge        pickup        19
##  8 dodge        suv            7
##  9 ford         pickup         7
## 10 ford         subcompact     9
## # … with 22 more rows
…
